CRITICAL - 2020-12-05 08:33:42 --> Too few arguments to function App\Controllers\Omatsivut::info(), 0 passed in C:\Users\morak\Desktop\verkkokauppa\system\CodeIgniter.php on line 918 and exactly 1 expected
#0 C:\Users\morak\Desktop\verkkokauppa\system\CodeIgniter.php(918): App\Controllers\Omatsivut->info()
#1 C:\Users\morak\Desktop\verkkokauppa\system\CodeIgniter.php(404): CodeIgniter\CodeIgniter->runController(Object(App\Controllers\Omatsivut))
#2 C:\Users\morak\Desktop\verkkokauppa\system\CodeIgniter.php(312): CodeIgniter\CodeIgniter->handleRequest(NULL, Object(Config\Cache), false)
#3 C:\Users\morak\Desktop\verkkokauppa\public\index.php(45): CodeIgniter\CodeIgniter->run()
#4 C:\Users\morak\Desktop\verkkokauppa\system\Commands\Server\rewrite.php(34): require_once('C:\\Users\\morak\\...')
#5 {main}
CRITICAL - 2020-12-05 08:34:15 --> Too few arguments to function App\Controllers\Omatsivut::info(), 0 passed in C:\Users\morak\Desktop\verkkokauppa\system\CodeIgniter.php on line 918 and exactly 1 expected
#0 C:\Users\morak\Desktop\verkkokauppa\system\CodeIgniter.php(918): App\Controllers\Omatsivut->info()
#1 C:\Users\morak\Desktop\verkkokauppa\system\CodeIgniter.php(404): CodeIgniter\CodeIgniter->runController(Object(App\Controllers\Omatsivut))
#2 C:\Users\morak\Desktop\verkkokauppa\system\CodeIgniter.php(312): CodeIgniter\CodeIgniter->handleRequest(NULL, Object(Config\Cache), false)
#3 C:\Users\morak\Desktop\verkkokauppa\public\index.php(45): CodeIgniter\CodeIgniter->run()
#4 C:\Users\morak\Desktop\verkkokauppa\system\Commands\Server\rewrite.php(34): require_once('C:\\Users\\morak\\...')
#5 {main}
CRITICAL - 2020-12-05 08:34:18 --> Too few arguments to function App\Controllers\Omatsivut::info(), 0 passed in C:\Users\morak\Desktop\verkkokauppa\system\CodeIgniter.php on line 918 and exactly 1 expected
#0 C:\Users\morak\Desktop\verkkokauppa\system\CodeIgniter.php(918): App\Controllers\Omatsivut->info()
#1 C:\Users\morak\Desktop\verkkokauppa\system\CodeIgniter.php(404): CodeIgniter\CodeIgniter->runController(Object(App\Controllers\Omatsivut))
#2 C:\Users\morak\Desktop\verkkokauppa\system\CodeIgniter.php(312): CodeIgniter\CodeIgniter->handleRequest(NULL, Object(Config\Cache), false)
#3 C:\Users\morak\Desktop\verkkokauppa\public\index.php(45): CodeIgniter\CodeIgniter->run()
#4 C:\Users\morak\Desktop\verkkokauppa\system\Commands\Server\rewrite.php(34): require_once('C:\\Users\\morak\\...')
#5 {main}
CRITICAL - 2020-12-05 08:34:53 --> Too few arguments to function App\Controllers\Omatsivut::info(), 0 passed in C:\Users\morak\Desktop\verkkokauppa\system\CodeIgniter.php on line 918 and exactly 1 expected
#0 C:\Users\morak\Desktop\verkkokauppa\system\CodeIgniter.php(918): App\Controllers\Omatsivut->info()
#1 C:\Users\morak\Desktop\verkkokauppa\system\CodeIgniter.php(404): CodeIgniter\CodeIgniter->runController(Object(App\Controllers\Omatsivut))
#2 C:\Users\morak\Desktop\verkkokauppa\system\CodeIgniter.php(312): CodeIgniter\CodeIgniter->handleRequest(NULL, Object(Config\Cache), false)
#3 C:\Users\morak\Desktop\verkkokauppa\public\index.php(45): CodeIgniter\CodeIgniter->run()
#4 C:\Users\morak\Desktop\verkkokauppa\system\Commands\Server\rewrite.php(34): require_once('C:\\Users\\morak\\...')
#5 {main}
CRITICAL - 2020-12-05 08:34:55 --> Too few arguments to function App\Controllers\Omatsivut::info(), 0 passed in C:\Users\morak\Desktop\verkkokauppa\system\CodeIgniter.php on line 918 and exactly 1 expected
#0 C:\Users\morak\Desktop\verkkokauppa\system\CodeIgniter.php(918): App\Controllers\Omatsivut->info()
#1 C:\Users\morak\Desktop\verkkokauppa\system\CodeIgniter.php(404): CodeIgniter\CodeIgniter->runController(Object(App\Controllers\Omatsivut))
#2 C:\Users\morak\Desktop\verkkokauppa\system\CodeIgniter.php(312): CodeIgniter\CodeIgniter->handleRequest(NULL, Object(Config\Cache), false)
#3 C:\Users\morak\Desktop\verkkokauppa\public\index.php(45): CodeIgniter\CodeIgniter->run()
#4 C:\Users\morak\Desktop\verkkokauppa\system\Commands\Server\rewrite.php(34): require_once('C:\\Users\\morak\\...')
#5 {main}
CRITICAL - 2020-12-05 08:35:05 --> Undefined property: App\Controllers\Omatsivut::$asiakasModel
#0 C:\Users\morak\Desktop\verkkokauppa\app\Controllers\Omatsivut.php(48): CodeIgniter\Debug\Exceptions->errorHandler(8, 'Undefined prope...', 'C:\\Users\\morak\\...', 48, Array)
#1 C:\Users\morak\Desktop\verkkokauppa\system\CodeIgniter.php(918): App\Controllers\Omatsivut->info()
#2 C:\Users\morak\Desktop\verkkokauppa\system\CodeIgniter.php(404): CodeIgniter\CodeIgniter->runController(Object(App\Controllers\Omatsivut))
#3 C:\Users\morak\Desktop\verkkokauppa\system\CodeIgniter.php(312): CodeIgniter\CodeIgniter->handleRequest(NULL, Object(Config\Cache), false)
#4 C:\Users\morak\Desktop\verkkokauppa\public\index.php(45): CodeIgniter\CodeIgniter->run()
#5 C:\Users\morak\Desktop\verkkokauppa\system\Commands\Server\rewrite.php(34): require_once('C:\\Users\\morak\\...')
#6 {main}
CRITICAL - 2020-12-05 08:36:06 --> Undefined property: App\Controllers\Omatsivut::$asiakasModel
#0 C:\Users\morak\Desktop\verkkokauppa\app\Controllers\Omatsivut.php(48): CodeIgniter\Debug\Exceptions->errorHandler(8, 'Undefined prope...', 'C:\\Users\\morak\\...', 48, Array)
#1 C:\Users\morak\Desktop\verkkokauppa\system\CodeIgniter.php(918): App\Controllers\Omatsivut->info()
#2 C:\Users\morak\Desktop\verkkokauppa\system\CodeIgniter.php(404): CodeIgniter\CodeIgniter->runController(Object(App\Controllers\Omatsivut))
#3 C:\Users\morak\Desktop\verkkokauppa\system\CodeIgniter.php(312): CodeIgniter\CodeIgniter->handleRequest(NULL, Object(Config\Cache), false)
#4 C:\Users\morak\Desktop\verkkokauppa\public\index.php(45): CodeIgniter\CodeIgniter->run()
#5 C:\Users\morak\Desktop\verkkokauppa\system\Commands\Server\rewrite.php(34): require_once('C:\\Users\\morak\\...')
#6 {main}
CRITICAL - 2020-12-05 08:36:08 --> Undefined property: App\Controllers\Omatsivut::$asiakasModel
#0 C:\Users\morak\Desktop\verkkokauppa\app\Controllers\Omatsivut.php(48): CodeIgniter\Debug\Exceptions->errorHandler(8, 'Undefined prope...', 'C:\\Users\\morak\\...', 48, Array)
#1 C:\Users\morak\Desktop\verkkokauppa\system\CodeIgniter.php(918): App\Controllers\Omatsivut->info()
#2 C:\Users\morak\Desktop\verkkokauppa\system\CodeIgniter.php(404): CodeIgniter\CodeIgniter->runController(Object(App\Controllers\Omatsivut))
#3 C:\Users\morak\Desktop\verkkokauppa\system\CodeIgniter.php(312): CodeIgniter\CodeIgniter->handleRequest(NULL, Object(Config\Cache), false)
#4 C:\Users\morak\Desktop\verkkokauppa\public\index.php(45): CodeIgniter\CodeIgniter->run()
#5 C:\Users\morak\Desktop\verkkokauppa\system\Commands\Server\rewrite.php(34): require_once('C:\\Users\\morak\\...')
#6 {main}
CRITICAL - 2020-12-05 08:36:24 --> Undefined property: App\Controllers\Omatsivut::$asiakasModel
#0 C:\Users\morak\Desktop\verkkokauppa\app\Controllers\Omatsivut.php(48): CodeIgniter\Debug\Exceptions->errorHandler(8, 'Undefined prope...', 'C:\\Users\\morak\\...', 48, Array)
#1 C:\Users\morak\Desktop\verkkokauppa\system\CodeIgniter.php(918): App\Controllers\Omatsivut->info()
#2 C:\Users\morak\Desktop\verkkokauppa\system\CodeIgniter.php(404): CodeIgniter\CodeIgniter->runController(Object(App\Controllers\Omatsivut))
#3 C:\Users\morak\Desktop\verkkokauppa\system\CodeIgniter.php(312): CodeIgniter\CodeIgniter->handleRequest(NULL, Object(Config\Cache), false)
#4 C:\Users\morak\Desktop\verkkokauppa\public\index.php(45): CodeIgniter\CodeIgniter->run()
#5 C:\Users\morak\Desktop\verkkokauppa\system\Commands\Server\rewrite.php(34): require_once('C:\\Users\\morak\\...')
#6 {main}
CRITICAL - 2020-12-05 08:37:18 --> Call to undefined method App\Models\AsiakasModel::lukumaara
#0 C:\Users\morak\Desktop\verkkokauppa\app\Controllers\Omatsivut.php(50): CodeIgniter\Model->__call('lukumaara', Array)
#1 C:\Users\morak\Desktop\verkkokauppa\system\CodeIgniter.php(918): App\Controllers\Omatsivut->info()
#2 C:\Users\morak\Desktop\verkkokauppa\system\CodeIgniter.php(404): CodeIgniter\CodeIgniter->runController(Object(App\Controllers\Omatsivut))
#3 C:\Users\morak\Desktop\verkkokauppa\system\CodeIgniter.php(312): CodeIgniter\CodeIgniter->handleRequest(NULL, Object(Config\Cache), false)
#4 C:\Users\morak\Desktop\verkkokauppa\public\index.php(45): CodeIgniter\CodeIgniter->run()
#5 C:\Users\morak\Desktop\verkkokauppa\system\Commands\Server\rewrite.php(34): require_once('C:\\Users\\morak\\...')
#6 {main}
CRITICAL - 2020-12-05 08:37:32 --> Too few arguments to function App\Controllers\Omatsivut::info(), 0 passed in C:\Users\morak\Desktop\verkkokauppa\system\CodeIgniter.php on line 918 and exactly 1 expected
#0 C:\Users\morak\Desktop\verkkokauppa\system\CodeIgniter.php(918): App\Controllers\Omatsivut->info()
#1 C:\Users\morak\Desktop\verkkokauppa\system\CodeIgniter.php(404): CodeIgniter\CodeIgniter->runController(Object(App\Controllers\Omatsivut))
#2 C:\Users\morak\Desktop\verkkokauppa\system\CodeIgniter.php(312): CodeIgniter\CodeIgniter->handleRequest(NULL, Object(Config\Cache), false)
#3 C:\Users\morak\Desktop\verkkokauppa\public\index.php(45): CodeIgniter\CodeIgniter->run()
#4 C:\Users\morak\Desktop\verkkokauppa\system\Commands\Server\rewrite.php(34): require_once('C:\\Users\\morak\\...')
#5 {main}
CRITICAL - 2020-12-05 08:37:53 --> Too few arguments to function App\Controllers\Omatsivut::info(), 0 passed in C:\Users\morak\Desktop\verkkokauppa\system\CodeIgniter.php on line 918 and exactly 1 expected
#0 C:\Users\morak\Desktop\verkkokauppa\system\CodeIgniter.php(918): App\Controllers\Omatsivut->info()
#1 C:\Users\morak\Desktop\verkkokauppa\system\CodeIgniter.php(404): CodeIgniter\CodeIgniter->runController(Object(App\Controllers\Omatsivut))
#2 C:\Users\morak\Desktop\verkkokauppa\system\CodeIgniter.php(312): CodeIgniter\CodeIgniter->handleRequest(NULL, Object(Config\Cache), false)
#3 C:\Users\morak\Desktop\verkkokauppa\public\index.php(45): CodeIgniter\CodeIgniter->run()
#4 C:\Users\morak\Desktop\verkkokauppa\system\Commands\Server\rewrite.php(34): require_once('C:\\Users\\morak\\...')
#5 {main}
CRITICAL - 2020-12-05 08:38:06 --> Too few arguments to function App\Controllers\Omatsivut::info(), 0 passed in C:\Users\morak\Desktop\verkkokauppa\system\CodeIgniter.php on line 918 and exactly 1 expected
#0 C:\Users\morak\Desktop\verkkokauppa\system\CodeIgniter.php(918): App\Controllers\Omatsivut->info()
#1 C:\Users\morak\Desktop\verkkokauppa\system\CodeIgniter.php(404): CodeIgniter\CodeIgniter->runController(Object(App\Controllers\Omatsivut))
#2 C:\Users\morak\Desktop\verkkokauppa\system\CodeIgniter.php(312): CodeIgniter\CodeIgniter->handleRequest(NULL, Object(Config\Cache), false)
#3 C:\Users\morak\Desktop\verkkokauppa\public\index.php(45): CodeIgniter\CodeIgniter->run()
#4 C:\Users\morak\Desktop\verkkokauppa\system\Commands\Server\rewrite.php(34): require_once('C:\\Users\\morak\\...')
#5 {main}
CRITICAL - 2020-12-05 08:38:13 --> Too few arguments to function App\Controllers\Omatsivut::info(), 0 passed in C:\Users\morak\Desktop\verkkokauppa\system\CodeIgniter.php on line 918 and exactly 1 expected
#0 C:\Users\morak\Desktop\verkkokauppa\system\CodeIgniter.php(918): App\Controllers\Omatsivut->info()
#1 C:\Users\morak\Desktop\verkkokauppa\system\CodeIgniter.php(404): CodeIgniter\CodeIgniter->runController(Object(App\Controllers\Omatsivut))
#2 C:\Users\morak\Desktop\verkkokauppa\system\CodeIgniter.php(312): CodeIgniter\CodeIgniter->handleRequest(NULL, Object(Config\Cache), false)
#3 C:\Users\morak\Desktop\verkkokauppa\public\index.php(45): CodeIgniter\CodeIgniter->run()
#4 C:\Users\morak\Desktop\verkkokauppa\system\Commands\Server\rewrite.php(34): require_once('C:\\Users\\morak\\...')
#5 {main}
CRITICAL - 2020-12-05 08:38:24 --> Call to undefined method App\Models\AsiakasModel::lukumaara
#0 C:\Users\morak\Desktop\verkkokauppa\app\Controllers\Omatsivut.php(50): CodeIgniter\Model->__call('lukumaara', Array)
#1 C:\Users\morak\Desktop\verkkokauppa\system\CodeIgniter.php(918): App\Controllers\Omatsivut->info()
#2 C:\Users\morak\Desktop\verkkokauppa\system\CodeIgniter.php(404): CodeIgniter\CodeIgniter->runController(Object(App\Controllers\Omatsivut))
#3 C:\Users\morak\Desktop\verkkokauppa\system\CodeIgniter.php(312): CodeIgniter\CodeIgniter->handleRequest(NULL, Object(Config\Cache), false)
#4 C:\Users\morak\Desktop\verkkokauppa\public\index.php(45): CodeIgniter\CodeIgniter->run()
#5 C:\Users\morak\Desktop\verkkokauppa\system\Commands\Server\rewrite.php(34): require_once('C:\\Users\\morak\\...')
#6 {main}
CRITICAL - 2020-12-05 08:39:18 --> Call to undefined method App\Models\AsiakasModel::lukumaara
#0 C:\Users\morak\Desktop\verkkokauppa\app\Controllers\Omatsivut.php(50): CodeIgniter\Model->__call('lukumaara', Array)
#1 C:\Users\morak\Desktop\verkkokauppa\system\CodeIgniter.php(918): App\Controllers\Omatsivut->info()
#2 C:\Users\morak\Desktop\verkkokauppa\system\CodeIgniter.php(404): CodeIgniter\CodeIgniter->runController(Object(App\Controllers\Omatsivut))
#3 C:\Users\morak\Desktop\verkkokauppa\system\CodeIgniter.php(312): CodeIgniter\CodeIgniter->handleRequest(NULL, Object(Config\Cache), false)
#4 C:\Users\morak\Desktop\verkkokauppa\public\index.php(45): CodeIgniter\CodeIgniter->run()
#5 C:\Users\morak\Desktop\verkkokauppa\system\Commands\Server\rewrite.php(34): require_once('C:\\Users\\morak\\...')
#6 {main}
CRITICAL - 2020-12-05 08:39:18 --> Call to undefined method App\Models\AsiakasModel::lukumaara
#0 C:\Users\morak\Desktop\verkkokauppa\app\Controllers\Omatsivut.php(50): CodeIgniter\Model->__call('lukumaara', Array)
#1 C:\Users\morak\Desktop\verkkokauppa\system\CodeIgniter.php(918): App\Controllers\Omatsivut->info()
#2 C:\Users\morak\Desktop\verkkokauppa\system\CodeIgniter.php(404): CodeIgniter\CodeIgniter->runController(Object(App\Controllers\Omatsivut))
#3 C:\Users\morak\Desktop\verkkokauppa\system\CodeIgniter.php(312): CodeIgniter\CodeIgniter->handleRequest(NULL, Object(Config\Cache), false)
#4 C:\Users\morak\Desktop\verkkokauppa\public\index.php(45): CodeIgniter\CodeIgniter->run()
#5 C:\Users\morak\Desktop\verkkokauppa\system\Commands\Server\rewrite.php(34): require_once('C:\\Users\\morak\\...')
#6 {main}
CRITICAL - 2020-12-05 08:39:25 --> Call to undefined method App\Models\AsiakasModel::lukumaara
#0 C:\Users\morak\Desktop\verkkokauppa\app\Controllers\Omatsivut.php(33): CodeIgniter\Model->__call('lukumaara', Array)
#1 C:\Users\morak\Desktop\verkkokauppa\system\CodeIgniter.php(918): App\Controllers\Omatsivut->index()
#2 C:\Users\morak\Desktop\verkkokauppa\system\CodeIgniter.php(404): CodeIgniter\CodeIgniter->runController(Object(App\Controllers\Omatsivut))
#3 C:\Users\morak\Desktop\verkkokauppa\system\CodeIgniter.php(312): CodeIgniter\CodeIgniter->handleRequest(NULL, Object(Config\Cache), false)
#4 C:\Users\morak\Desktop\verkkokauppa\public\index.php(45): CodeIgniter\CodeIgniter->run()
#5 C:\Users\morak\Desktop\verkkokauppa\system\Commands\Server\rewrite.php(34): require_once('C:\\Users\\morak\\...')
#6 {main}
CRITICAL - 2020-12-05 08:39:26 --> Call to undefined method App\Models\AsiakasModel::lukumaara
#0 C:\Users\morak\Desktop\verkkokauppa\app\Controllers\Omatsivut.php(50): CodeIgniter\Model->__call('lukumaara', Array)
#1 C:\Users\morak\Desktop\verkkokauppa\system\CodeIgniter.php(918): App\Controllers\Omatsivut->info()
#2 C:\Users\morak\Desktop\verkkokauppa\system\CodeIgniter.php(404): CodeIgniter\CodeIgniter->runController(Object(App\Controllers\Omatsivut))
#3 C:\Users\morak\Desktop\verkkokauppa\system\CodeIgniter.php(312): CodeIgniter\CodeIgniter->handleRequest(NULL, Object(Config\Cache), false)
#4 C:\Users\morak\Desktop\verkkokauppa\public\index.php(45): CodeIgniter\CodeIgniter->run()
#5 C:\Users\morak\Desktop\verkkokauppa\system\Commands\Server\rewrite.php(34): require_once('C:\\Users\\morak\\...')
#6 {main}
CRITICAL - 2020-12-05 08:39:27 --> Call to undefined method App\Models\AsiakasModel::lukumaara
#0 C:\Users\morak\Desktop\verkkokauppa\app\Controllers\Omatsivut.php(33): CodeIgniter\Model->__call('lukumaara', Array)
#1 C:\Users\morak\Desktop\verkkokauppa\system\CodeIgniter.php(918): App\Controllers\Omatsivut->index()
#2 C:\Users\morak\Desktop\verkkokauppa\system\CodeIgniter.php(404): CodeIgniter\CodeIgniter->runController(Object(App\Controllers\Omatsivut))
#3 C:\Users\morak\Desktop\verkkokauppa\system\CodeIgniter.php(312): CodeIgniter\CodeIgniter->handleRequest(NULL, Object(Config\Cache), false)
#4 C:\Users\morak\Desktop\verkkokauppa\public\index.php(45): CodeIgniter\CodeIgniter->run()
#5 C:\Users\morak\Desktop\verkkokauppa\system\Commands\Server\rewrite.php(34): require_once('C:\\Users\\morak\\...')
#6 {main}
CRITICAL - 2020-12-05 08:39:30 --> Call to undefined method App\Models\AsiakasModel::lukumaara
#0 C:\Users\morak\Desktop\verkkokauppa\app\Controllers\Omatsivut.php(33): CodeIgniter\Model->__call('lukumaara', Array)
#1 C:\Users\morak\Desktop\verkkokauppa\system\CodeIgniter.php(918): App\Controllers\Omatsivut->index()
#2 C:\Users\morak\Desktop\verkkokauppa\system\CodeIgniter.php(404): CodeIgniter\CodeIgniter->runController(Object(App\Controllers\Omatsivut))
#3 C:\Users\morak\Desktop\verkkokauppa\system\CodeIgniter.php(312): CodeIgniter\CodeIgniter->handleRequest(NULL, Object(Config\Cache), false)
#4 C:\Users\morak\Desktop\verkkokauppa\public\index.php(45): CodeIgniter\CodeIgniter->run()
#5 C:\Users\morak\Desktop\verkkokauppa\system\Commands\Server\rewrite.php(34): require_once('C:\\Users\\morak\\...')
#6 {main}
CRITICAL - 2020-12-05 08:39:45 --> Call to undefined method App\Models\AsiakasModel::lukumaara
#0 C:\Users\morak\Desktop\verkkokauppa\app\Controllers\Omatsivut.php(33): CodeIgniter\Model->__call('lukumaara', Array)
#1 C:\Users\morak\Desktop\verkkokauppa\system\CodeIgniter.php(918): App\Controllers\Omatsivut->index()
#2 C:\Users\morak\Desktop\verkkokauppa\system\CodeIgniter.php(404): CodeIgniter\CodeIgniter->runController(Object(App\Controllers\Omatsivut))
#3 C:\Users\morak\Desktop\verkkokauppa\system\CodeIgniter.php(312): CodeIgniter\CodeIgniter->handleRequest(NULL, Object(Config\Cache), false)
#4 C:\Users\morak\Desktop\verkkokauppa\public\index.php(45): CodeIgniter\CodeIgniter->run()
#5 C:\Users\morak\Desktop\verkkokauppa\system\Commands\Server\rewrite.php(34): require_once('C:\\Users\\morak\\...')
#6 {main}
CRITICAL - 2020-12-05 08:44:27 --> Call to undefined method App\Models\AsiakasModel::lukumaara
#0 C:\Users\morak\Desktop\verkkokauppa\app\Controllers\Omatsivut.php(33): CodeIgniter\Model->__call('lukumaara', Array)
#1 C:\Users\morak\Desktop\verkkokauppa\system\CodeIgniter.php(918): App\Controllers\Omatsivut->index()
#2 C:\Users\morak\Desktop\verkkokauppa\system\CodeIgniter.php(404): CodeIgniter\CodeIgniter->runController(Object(App\Controllers\Omatsivut))
#3 C:\Users\morak\Desktop\verkkokauppa\system\CodeIgniter.php(312): CodeIgniter\CodeIgniter->handleRequest(NULL, Object(Config\Cache), false)
#4 C:\Users\morak\Desktop\verkkokauppa\public\index.php(45): CodeIgniter\CodeIgniter->run()
#5 C:\Users\morak\Desktop\verkkokauppa\system\Commands\Server\rewrite.php(34): require_once('C:\\Users\\morak\\...')
#6 {main}
CRITICAL - 2020-12-05 08:45:14 --> Undefined variable: id
#0 C:\Users\morak\Desktop\verkkokauppa\app\Models\AsiakasModel.php(19): CodeIgniter\Debug\Exceptions->errorHandler(8, 'Undefined varia...', 'C:\\Users\\morak\\...', 19, Array)
#1 C:\Users\morak\Desktop\verkkokauppa\app\Controllers\Omatsivut.php(51): App\Models\AsiakasModel->haeAsiakas()
#2 C:\Users\morak\Desktop\verkkokauppa\system\CodeIgniter.php(918): App\Controllers\Omatsivut->info()
#3 C:\Users\morak\Desktop\verkkokauppa\system\CodeIgniter.php(404): CodeIgniter\CodeIgniter->runController(Object(App\Controllers\Omatsivut))
#4 C:\Users\morak\Desktop\verkkokauppa\system\CodeIgniter.php(312): CodeIgniter\CodeIgniter->handleRequest(NULL, Object(Config\Cache), false)
#5 C:\Users\morak\Desktop\verkkokauppa\public\index.php(45): CodeIgniter\CodeIgniter->run()
#6 C:\Users\morak\Desktop\verkkokauppa\system\Commands\Server\rewrite.php(34): require_once('C:\\Users\\morak\\...')
#7 {main}
CRITICAL - 2020-12-05 08:45:35 --> Too few arguments to function App\Controllers\Omatsivut::info(), 0 passed in C:\Users\morak\Desktop\verkkokauppa\system\CodeIgniter.php on line 918 and exactly 1 expected
#0 C:\Users\morak\Desktop\verkkokauppa\system\CodeIgniter.php(918): App\Controllers\Omatsivut->info()
#1 C:\Users\morak\Desktop\verkkokauppa\system\CodeIgniter.php(404): CodeIgniter\CodeIgniter->runController(Object(App\Controllers\Omatsivut))
#2 C:\Users\morak\Desktop\verkkokauppa\system\CodeIgniter.php(312): CodeIgniter\CodeIgniter->handleRequest(NULL, Object(Config\Cache), false)
#3 C:\Users\morak\Desktop\verkkokauppa\public\index.php(45): CodeIgniter\CodeIgniter->run()
#4 C:\Users\morak\Desktop\verkkokauppa\system\Commands\Server\rewrite.php(34): require_once('C:\\Users\\morak\\...')
#5 {main}
CRITICAL - 2020-12-05 08:45:47 --> Too few arguments to function App\Controllers\Omatsivut::info(), 0 passed in C:\Users\morak\Desktop\verkkokauppa\system\CodeIgniter.php on line 918 and exactly 1 expected
#0 C:\Users\morak\Desktop\verkkokauppa\system\CodeIgniter.php(918): App\Controllers\Omatsivut->info()
#1 C:\Users\morak\Desktop\verkkokauppa\system\CodeIgniter.php(404): CodeIgniter\CodeIgniter->runController(Object(App\Controllers\Omatsivut))
#2 C:\Users\morak\Desktop\verkkokauppa\system\CodeIgniter.php(312): CodeIgniter\CodeIgniter->handleRequest(NULL, Object(Config\Cache), false)
#3 C:\Users\morak\Desktop\verkkokauppa\public\index.php(45): CodeIgniter\CodeIgniter->run()
#4 C:\Users\morak\Desktop\verkkokauppa\system\Commands\Server\rewrite.php(34): require_once('C:\\Users\\morak\\...')
#5 {main}
CRITICAL - 2020-12-05 08:47:25 --> Too few arguments to function App\Controllers\Omatsivut::info(), 0 passed in C:\Users\morak\Desktop\verkkokauppa\system\CodeIgniter.php on line 918 and exactly 1 expected
#0 C:\Users\morak\Desktop\verkkokauppa\system\CodeIgniter.php(918): App\Controllers\Omatsivut->info()
#1 C:\Users\morak\Desktop\verkkokauppa\system\CodeIgniter.php(404): CodeIgniter\CodeIgniter->runController(Object(App\Controllers\Omatsivut))
#2 C:\Users\morak\Desktop\verkkokauppa\system\CodeIgniter.php(312): CodeIgniter\CodeIgniter->handleRequest(NULL, Object(Config\Cache), false)
#3 C:\Users\morak\Desktop\verkkokauppa\public\index.php(45): CodeIgniter\CodeIgniter->run()
#4 C:\Users\morak\Desktop\verkkokauppa\system\Commands\Server\rewrite.php(34): require_once('C:\\Users\\morak\\...')
#5 {main}
CRITICAL - 2020-12-05 08:48:15 --> Too few arguments to function App\Controllers\Omatsivut::info(), 0 passed in C:\Users\morak\Desktop\verkkokauppa\system\CodeIgniter.php on line 918 and exactly 1 expected
#0 C:\Users\morak\Desktop\verkkokauppa\system\CodeIgniter.php(918): App\Controllers\Omatsivut->info()
#1 C:\Users\morak\Desktop\verkkokauppa\system\CodeIgniter.php(404): CodeIgniter\CodeIgniter->runController(Object(App\Controllers\Omatsivut))
#2 C:\Users\morak\Desktop\verkkokauppa\system\CodeIgniter.php(312): CodeIgniter\CodeIgniter->handleRequest(NULL, Object(Config\Cache), false)
#3 C:\Users\morak\Desktop\verkkokauppa\public\index.php(45): CodeIgniter\CodeIgniter->run()
#4 C:\Users\morak\Desktop\verkkokauppa\system\Commands\Server\rewrite.php(34): require_once('C:\\Users\\morak\\...')
#5 {main}
CRITICAL - 2020-12-05 08:48:15 --> Too few arguments to function App\Controllers\Omatsivut::info(), 0 passed in C:\Users\morak\Desktop\verkkokauppa\system\CodeIgniter.php on line 918 and exactly 1 expected
#0 C:\Users\morak\Desktop\verkkokauppa\system\CodeIgniter.php(918): App\Controllers\Omatsivut->info()
#1 C:\Users\morak\Desktop\verkkokauppa\system\CodeIgniter.php(404): CodeIgniter\CodeIgniter->runController(Object(App\Controllers\Omatsivut))
#2 C:\Users\morak\Desktop\verkkokauppa\system\CodeIgniter.php(312): CodeIgniter\CodeIgniter->handleRequest(NULL, Object(Config\Cache), false)
#3 C:\Users\morak\Desktop\verkkokauppa\public\index.php(45): CodeIgniter\CodeIgniter->run()
#4 C:\Users\morak\Desktop\verkkokauppa\system\Commands\Server\rewrite.php(34): require_once('C:\\Users\\morak\\...')
#5 {main}
CRITICAL - 2020-12-05 08:48:35 --> Too few arguments to function App\Controllers\Omatsivut::info(), 0 passed in C:\Users\morak\Desktop\verkkokauppa\system\CodeIgniter.php on line 918 and exactly 1 expected
#0 C:\Users\morak\Desktop\verkkokauppa\system\CodeIgniter.php(918): App\Controllers\Omatsivut->info()
#1 C:\Users\morak\Desktop\verkkokauppa\system\CodeIgniter.php(404): CodeIgniter\CodeIgniter->runController(Object(App\Controllers\Omatsivut))
#2 C:\Users\morak\Desktop\verkkokauppa\system\CodeIgniter.php(312): CodeIgniter\CodeIgniter->handleRequest(NULL, Object(Config\Cache), false)
#3 C:\Users\morak\Desktop\verkkokauppa\public\index.php(45): CodeIgniter\CodeIgniter->run()
#4 C:\Users\morak\Desktop\verkkokauppa\system\Commands\Server\rewrite.php(34): require_once('C:\\Users\\morak\\...')
#5 {main}
CRITICAL - 2020-12-05 08:49:06 --> Undefined variable: id
#0 C:\Users\morak\Desktop\verkkokauppa\app\Models\AsiakasModel.php(19): CodeIgniter\Debug\Exceptions->errorHandler(8, 'Undefined varia...', 'C:\\Users\\morak\\...', 19, Array)
#1 C:\Users\morak\Desktop\verkkokauppa\app\Controllers\Omatsivut.php(51): App\Models\AsiakasModel->haeAsiakas()
#2 C:\Users\morak\Desktop\verkkokauppa\system\CodeIgniter.php(918): App\Controllers\Omatsivut->info()
#3 C:\Users\morak\Desktop\verkkokauppa\system\CodeIgniter.php(404): CodeIgniter\CodeIgniter->runController(Object(App\Controllers\Omatsivut))
#4 C:\Users\morak\Desktop\verkkokauppa\system\CodeIgniter.php(312): CodeIgniter\CodeIgniter->handleRequest(NULL, Object(Config\Cache), false)
#5 C:\Users\morak\Desktop\verkkokauppa\public\index.php(45): CodeIgniter\CodeIgniter->run()
#6 C:\Users\morak\Desktop\verkkokauppa\system\Commands\Server\rewrite.php(34): require_once('C:\\Users\\morak\\...')
#7 {main}
CRITICAL - 2020-12-05 08:49:34 --> Undefined variable: id
#0 C:\Users\morak\Desktop\verkkokauppa\app\Controllers\Omatsivut.php(51): CodeIgniter\Debug\Exceptions->errorHandler(8, 'Undefined varia...', 'C:\\Users\\morak\\...', 51, Array)
#1 C:\Users\morak\Desktop\verkkokauppa\system\CodeIgniter.php(918): App\Controllers\Omatsivut->info()
#2 C:\Users\morak\Desktop\verkkokauppa\system\CodeIgniter.php(404): CodeIgniter\CodeIgniter->runController(Object(App\Controllers\Omatsivut))
#3 C:\Users\morak\Desktop\verkkokauppa\system\CodeIgniter.php(312): CodeIgniter\CodeIgniter->handleRequest(NULL, Object(Config\Cache), false)
#4 C:\Users\morak\Desktop\verkkokauppa\public\index.php(45): CodeIgniter\CodeIgniter->run()
#5 C:\Users\morak\Desktop\verkkokauppa\system\Commands\Server\rewrite.php(34): require_once('C:\\Users\\morak\\...')
#6 {main}
CRITICAL - 2020-12-05 08:49:41 --> Undefined variable: ID
#0 C:\Users\morak\Desktop\verkkokauppa\app\Controllers\Omatsivut.php(51): CodeIgniter\Debug\Exceptions->errorHandler(8, 'Undefined varia...', 'C:\\Users\\morak\\...', 51, Array)
#1 C:\Users\morak\Desktop\verkkokauppa\system\CodeIgniter.php(918): App\Controllers\Omatsivut->info()
#2 C:\Users\morak\Desktop\verkkokauppa\system\CodeIgniter.php(404): CodeIgniter\CodeIgniter->runController(Object(App\Controllers\Omatsivut))
#3 C:\Users\morak\Desktop\verkkokauppa\system\CodeIgniter.php(312): CodeIgniter\CodeIgniter->handleRequest(NULL, Object(Config\Cache), false)
#4 C:\Users\morak\Desktop\verkkokauppa\public\index.php(45): CodeIgniter\CodeIgniter->run()
#5 C:\Users\morak\Desktop\verkkokauppa\system\Commands\Server\rewrite.php(34): require_once('C:\\Users\\morak\\...')
#6 {main}
CRITICAL - 2020-12-05 08:49:47 --> Undefined variable: id
#0 C:\Users\morak\Desktop\verkkokauppa\app\Models\AsiakasModel.php(19): CodeIgniter\Debug\Exceptions->errorHandler(8, 'Undefined varia...', 'C:\\Users\\morak\\...', 19, Array)
#1 C:\Users\morak\Desktop\verkkokauppa\app\Controllers\Omatsivut.php(51): App\Models\AsiakasModel->haeAsiakas()
#2 C:\Users\morak\Desktop\verkkokauppa\system\CodeIgniter.php(918): App\Controllers\Omatsivut->info()
#3 C:\Users\morak\Desktop\verkkokauppa\system\CodeIgniter.php(404): CodeIgniter\CodeIgniter->runController(Object(App\Controllers\Omatsivut))
#4 C:\Users\morak\Desktop\verkkokauppa\system\CodeIgniter.php(312): CodeIgniter\CodeIgniter->handleRequest(NULL, Object(Config\Cache), false)
#5 C:\Users\morak\Desktop\verkkokauppa\public\index.php(45): CodeIgniter\CodeIgniter->run()
#6 C:\Users\morak\Desktop\verkkokauppa\system\Commands\Server\rewrite.php(34): require_once('C:\\Users\\morak\\...')
#7 {main}
CRITICAL - 2020-12-05 09:02:04 --> Undefined variable: id
#0 C:\Users\morak\Desktop\verkkokauppa\app\Models\AsiakasModel.php(19): CodeIgniter\Debug\Exceptions->errorHandler(8, 'Undefined varia...', 'C:\\Users\\morak\\...', 19, Array)
#1 C:\Users\morak\Desktop\verkkokauppa\app\Controllers\Omatsivut.php(51): App\Models\AsiakasModel->haeAsiakas()
#2 C:\Users\morak\Desktop\verkkokauppa\system\CodeIgniter.php(918): App\Controllers\Omatsivut->info()
#3 C:\Users\morak\Desktop\verkkokauppa\system\CodeIgniter.php(404): CodeIgniter\CodeIgniter->runController(Object(App\Controllers\Omatsivut))
#4 C:\Users\morak\Desktop\verkkokauppa\system\CodeIgniter.php(312): CodeIgniter\CodeIgniter->handleRequest(NULL, Object(Config\Cache), false)
#5 C:\Users\morak\Desktop\verkkokauppa\public\index.php(45): CodeIgniter\CodeIgniter->run()
#6 C:\Users\morak\Desktop\verkkokauppa\system\Commands\Server\rewrite.php(34): require_once('C:\\Users\\morak\\...')
#7 {main}
CRITICAL - 2020-12-05 09:02:05 --> Undefined variable: id
#0 C:\Users\morak\Desktop\verkkokauppa\app\Models\AsiakasModel.php(19): CodeIgniter\Debug\Exceptions->errorHandler(8, 'Undefined varia...', 'C:\\Users\\morak\\...', 19, Array)
#1 C:\Users\morak\Desktop\verkkokauppa\app\Controllers\Omatsivut.php(51): App\Models\AsiakasModel->haeAsiakas()
#2 C:\Users\morak\Desktop\verkkokauppa\system\CodeIgniter.php(918): App\Controllers\Omatsivut->info()
#3 C:\Users\morak\Desktop\verkkokauppa\system\CodeIgniter.php(404): CodeIgniter\CodeIgniter->runController(Object(App\Controllers\Omatsivut))
#4 C:\Users\morak\Desktop\verkkokauppa\system\CodeIgniter.php(312): CodeIgniter\CodeIgniter->handleRequest(NULL, Object(Config\Cache), false)
#5 C:\Users\morak\Desktop\verkkokauppa\public\index.php(45): CodeIgniter\CodeIgniter->run()
#6 C:\Users\morak\Desktop\verkkokauppa\system\Commands\Server\rewrite.php(34): require_once('C:\\Users\\morak\\...')
#7 {main}
CRITICAL - 2020-12-05 09:02:22 --> Undefined variable: id
#0 C:\Users\morak\Desktop\verkkokauppa\app\Models\AsiakasModel.php(19): CodeIgniter\Debug\Exceptions->errorHandler(8, 'Undefined varia...', 'C:\\Users\\morak\\...', 19, Array)
#1 C:\Users\morak\Desktop\verkkokauppa\app\Controllers\Omatsivut.php(51): App\Models\AsiakasModel->haeAsiakas()
#2 C:\Users\morak\Desktop\verkkokauppa\system\CodeIgniter.php(918): App\Controllers\Omatsivut->info()
#3 C:\Users\morak\Desktop\verkkokauppa\system\CodeIgniter.php(404): CodeIgniter\CodeIgniter->runController(Object(App\Controllers\Omatsivut))
#4 C:\Users\morak\Desktop\verkkokauppa\system\CodeIgniter.php(312): CodeIgniter\CodeIgniter->handleRequest(NULL, Object(Config\Cache), false)
#5 C:\Users\morak\Desktop\verkkokauppa\public\index.php(45): CodeIgniter\CodeIgniter->run()
#6 C:\Users\morak\Desktop\verkkokauppa\system\Commands\Server\rewrite.php(34): require_once('C:\\Users\\morak\\...')
#7 {main}
CRITICAL - 2020-12-05 09:05:04 --> Trying to access array offset on value of type null
#0 C:\Users\morak\Desktop\verkkokauppa\app\Views\omattiedot.php(11): CodeIgniter\Debug\Exceptions->errorHandler(8, 'Trying to acces...', 'C:\\Users\\morak\\...', 11, Array)
#1 C:\Users\morak\Desktop\verkkokauppa\system\View\View.php(246): include('C:\\Users\\morak\\...')
#2 C:\Users\morak\Desktop\verkkokauppa\system\Common.php(1119): CodeIgniter\View\View->render('omattiedot', Array, true)
#3 C:\Users\morak\Desktop\verkkokauppa\app\Controllers\Omatsivut.php(53): view('omattiedot', Array)
#4 C:\Users\morak\Desktop\verkkokauppa\system\CodeIgniter.php(918): App\Controllers\Omatsivut->info()
#5 C:\Users\morak\Desktop\verkkokauppa\system\CodeIgniter.php(404): CodeIgniter\CodeIgniter->runController(Object(App\Controllers\Omatsivut))
#6 C:\Users\morak\Desktop\verkkokauppa\system\CodeIgniter.php(312): CodeIgniter\CodeIgniter->handleRequest(NULL, Object(Config\Cache), false)
#7 C:\Users\morak\Desktop\verkkokauppa\public\index.php(45): CodeIgniter\CodeIgniter->run()
#8 C:\Users\morak\Desktop\verkkokauppa\system\Commands\Server\rewrite.php(34): require_once('C:\\Users\\morak\\...')
#9 {main}
CRITICAL - 2020-12-05 09:05:52 --> Trying to access array offset on value of type null
#0 C:\Users\morak\Desktop\verkkokauppa\app\Views\omattiedot.php(11): CodeIgniter\Debug\Exceptions->errorHandler(8, 'Trying to acces...', 'C:\\Users\\morak\\...', 11, Array)
#1 C:\Users\morak\Desktop\verkkokauppa\system\View\View.php(246): include('C:\\Users\\morak\\...')
#2 C:\Users\morak\Desktop\verkkokauppa\system\Common.php(1119): CodeIgniter\View\View->render('omattiedot', Array, true)
#3 C:\Users\morak\Desktop\verkkokauppa\app\Controllers\Omatsivut.php(53): view('omattiedot', Array)
#4 C:\Users\morak\Desktop\verkkokauppa\system\CodeIgniter.php(918): App\Controllers\Omatsivut->info()
#5 C:\Users\morak\Desktop\verkkokauppa\system\CodeIgniter.php(404): CodeIgniter\CodeIgniter->runController(Object(App\Controllers\Omatsivut))
#6 C:\Users\morak\Desktop\verkkokauppa\system\CodeIgniter.php(312): CodeIgniter\CodeIgniter->handleRequest(NULL, Object(Config\Cache), false)
#7 C:\Users\morak\Desktop\verkkokauppa\public\index.php(45): CodeIgniter\CodeIgniter->run()
#8 C:\Users\morak\Desktop\verkkokauppa\system\Commands\Server\rewrite.php(34): require_once('C:\\Users\\morak\\...')
#9 {main}
CRITICAL - 2020-12-05 09:06:01 --> Trying to access array offset on value of type null
#0 C:\Users\morak\Desktop\verkkokauppa\app\Views\omattiedot.php(11): CodeIgniter\Debug\Exceptions->errorHandler(8, 'Trying to acces...', 'C:\\Users\\morak\\...', 11, Array)
#1 C:\Users\morak\Desktop\verkkokauppa\system\View\View.php(246): include('C:\\Users\\morak\\...')
#2 C:\Users\morak\Desktop\verkkokauppa\system\Common.php(1119): CodeIgniter\View\View->render('omattiedot', Array, true)
#3 C:\Users\morak\Desktop\verkkokauppa\app\Controllers\Omatsivut.php(53): view('omattiedot', Array)
#4 C:\Users\morak\Desktop\verkkokauppa\system\CodeIgniter.php(918): App\Controllers\Omatsivut->info()
#5 C:\Users\morak\Desktop\verkkokauppa\system\CodeIgniter.php(404): CodeIgniter\CodeIgniter->runController(Object(App\Controllers\Omatsivut))
#6 C:\Users\morak\Desktop\verkkokauppa\system\CodeIgniter.php(312): CodeIgniter\CodeIgniter->handleRequest(NULL, Object(Config\Cache), false)
#7 C:\Users\morak\Desktop\verkkokauppa\public\index.php(45): CodeIgniter\CodeIgniter->run()
#8 C:\Users\morak\Desktop\verkkokauppa\system\Commands\Server\rewrite.php(34): require_once('C:\\Users\\morak\\...')
#9 {main}
CRITICAL - 2020-12-05 09:06:31 --> Trying to access array offset on value of type null
#0 C:\Users\morak\Desktop\verkkokauppa\app\Views\omattiedot.php(10): CodeIgniter\Debug\Exceptions->errorHandler(8, 'Trying to acces...', 'C:\\Users\\morak\\...', 10, Array)
#1 C:\Users\morak\Desktop\verkkokauppa\system\View\View.php(246): include('C:\\Users\\morak\\...')
#2 C:\Users\morak\Desktop\verkkokauppa\system\Common.php(1119): CodeIgniter\View\View->render('omattiedot', Array, true)
#3 C:\Users\morak\Desktop\verkkokauppa\app\Controllers\Omatsivut.php(53): view('omattiedot', Array)
#4 C:\Users\morak\Desktop\verkkokauppa\system\CodeIgniter.php(918): App\Controllers\Omatsivut->info()
#5 C:\Users\morak\Desktop\verkkokauppa\system\CodeIgniter.php(404): CodeIgniter\CodeIgniter->runController(Object(App\Controllers\Omatsivut))
#6 C:\Users\morak\Desktop\verkkokauppa\system\CodeIgniter.php(312): CodeIgniter\CodeIgniter->handleRequest(NULL, Object(Config\Cache), false)
#7 C:\Users\morak\Desktop\verkkokauppa\public\index.php(45): CodeIgniter\CodeIgniter->run()
#8 C:\Users\morak\Desktop\verkkokauppa\system\Commands\Server\rewrite.php(34): require_once('C:\\Users\\morak\\...')
#9 {main}
CRITICAL - 2020-12-05 09:08:08 --> Call to undefined function optional()
#0 C:\Users\morak\Desktop\verkkokauppa\system\View\View.php(246): include()
#1 C:\Users\morak\Desktop\verkkokauppa\system\Common.php(1119): CodeIgniter\View\View->render('omattiedot', Array, true)
#2 C:\Users\morak\Desktop\verkkokauppa\app\Controllers\Omatsivut.php(53): view('omattiedot', Array)
#3 C:\Users\morak\Desktop\verkkokauppa\system\CodeIgniter.php(918): App\Controllers\Omatsivut->info()
#4 C:\Users\morak\Desktop\verkkokauppa\system\CodeIgniter.php(404): CodeIgniter\CodeIgniter->runController(Object(App\Controllers\Omatsivut))
#5 C:\Users\morak\Desktop\verkkokauppa\system\CodeIgniter.php(312): CodeIgniter\CodeIgniter->handleRequest(NULL, Object(Config\Cache), false)
#6 C:\Users\morak\Desktop\verkkokauppa\public\index.php(45): CodeIgniter\CodeIgniter->run()
#7 C:\Users\morak\Desktop\verkkokauppa\system\Commands\Server\rewrite.php(34): require_once('C:\\Users\\morak\\...')
#8 {main}
CRITICAL - 2020-12-05 09:08:18 --> Trying to access array offset on value of type null
#0 C:\Users\morak\Desktop\verkkokauppa\app\Views\omattiedot.php(10): CodeIgniter\Debug\Exceptions->errorHandler(8, 'Trying to acces...', 'C:\\Users\\morak\\...', 10, Array)
#1 C:\Users\morak\Desktop\verkkokauppa\system\View\View.php(246): include('C:\\Users\\morak\\...')
#2 C:\Users\morak\Desktop\verkkokauppa\system\Common.php(1119): CodeIgniter\View\View->render('omattiedot', Array, true)
#3 C:\Users\morak\Desktop\verkkokauppa\app\Controllers\Omatsivut.php(53): view('omattiedot', Array)
#4 C:\Users\morak\Desktop\verkkokauppa\system\CodeIgniter.php(918): App\Controllers\Omatsivut->info()
#5 C:\Users\morak\Desktop\verkkokauppa\system\CodeIgniter.php(404): CodeIgniter\CodeIgniter->runController(Object(App\Controllers\Omatsivut))
#6 C:\Users\morak\Desktop\verkkokauppa\system\CodeIgniter.php(312): CodeIgniter\CodeIgniter->handleRequest(NULL, Object(Config\Cache), false)
#7 C:\Users\morak\Desktop\verkkokauppa\public\index.php(45): CodeIgniter\CodeIgniter->run()
#8 C:\Users\morak\Desktop\verkkokauppa\system\Commands\Server\rewrite.php(34): require_once('C:\\Users\\morak\\...')
#9 {main}
CRITICAL - 2020-12-05 09:10:52 --> Trying to access array offset on value of type null
#0 C:\Users\morak\Desktop\verkkokauppa\app\Views\asiakastiedot.php(10): CodeIgniter\Debug\Exceptions->errorHandler(8, 'Trying to acces...', 'C:\\Users\\morak\\...', 10, Array)
#1 C:\Users\morak\Desktop\verkkokauppa\system\View\View.php(246): include('C:\\Users\\morak\\...')
#2 C:\Users\morak\Desktop\verkkokauppa\system\Common.php(1119): CodeIgniter\View\View->render('asiakastiedot', Array, true)
#3 C:\Users\morak\Desktop\verkkokauppa\app\Controllers\Asiakas.php(53): view('asiakastiedot', Array)
#4 C:\Users\morak\Desktop\verkkokauppa\system\CodeIgniter.php(918): App\Controllers\Asiakas->info()
#5 C:\Users\morak\Desktop\verkkokauppa\system\CodeIgniter.php(404): CodeIgniter\CodeIgniter->runController(Object(App\Controllers\Asiakas))
#6 C:\Users\morak\Desktop\verkkokauppa\system\CodeIgniter.php(312): CodeIgniter\CodeIgniter->handleRequest(NULL, Object(Config\Cache), false)
#7 C:\Users\morak\Desktop\verkkokauppa\public\index.php(45): CodeIgniter\CodeIgniter->run()
#8 C:\Users\morak\Desktop\verkkokauppa\system\Commands\Server\rewrite.php(34): require_once('C:\\Users\\morak\\...')
#9 {main}
CRITICAL - 2020-12-05 09:10:56 --> Trying to access array offset on value of type null
#0 C:\Users\morak\Desktop\verkkokauppa\app\Views\asiakastiedot.php(10): CodeIgniter\Debug\Exceptions->errorHandler(8, 'Trying to acces...', 'C:\\Users\\morak\\...', 10, Array)
#1 C:\Users\morak\Desktop\verkkokauppa\system\View\View.php(246): include('C:\\Users\\morak\\...')
#2 C:\Users\morak\Desktop\verkkokauppa\system\Common.php(1119): CodeIgniter\View\View->render('asiakastiedot', Array, true)
#3 C:\Users\morak\Desktop\verkkokauppa\app\Controllers\Asiakas.php(53): view('asiakastiedot', Array)
#4 C:\Users\morak\Desktop\verkkokauppa\system\CodeIgniter.php(918): App\Controllers\Asiakas->info()
#5 C:\Users\morak\Desktop\verkkokauppa\system\CodeIgniter.php(404): CodeIgniter\CodeIgniter->runController(Object(App\Controllers\Asiakas))
#6 C:\Users\morak\Desktop\verkkokauppa\system\CodeIgniter.php(312): CodeIgniter\CodeIgniter->handleRequest(NULL, Object(Config\Cache), false)
#7 C:\Users\morak\Desktop\verkkokauppa\public\index.php(45): CodeIgniter\CodeIgniter->run()
#8 C:\Users\morak\Desktop\verkkokauppa\system\Commands\Server\rewrite.php(34): require_once('C:\\Users\\morak\\...')
#9 {main}
CRITICAL - 2020-12-05 09:11:24 --> Undefined variable: id
#0 C:\Users\morak\Desktop\verkkokauppa\app\Models\AsiakasModel.php(19): CodeIgniter\Debug\Exceptions->errorHandler(8, 'Undefined varia...', 'C:\\Users\\morak\\...', 19, Array)
#1 C:\Users\morak\Desktop\verkkokauppa\app\Controllers\Asiakas.php(51): App\Models\AsiakasModel->haeAsiakas()
#2 C:\Users\morak\Desktop\verkkokauppa\system\CodeIgniter.php(918): App\Controllers\Asiakas->info()
#3 C:\Users\morak\Desktop\verkkokauppa\system\CodeIgniter.php(404): CodeIgniter\CodeIgniter->runController(Object(App\Controllers\Asiakas))
#4 C:\Users\morak\Desktop\verkkokauppa\system\CodeIgniter.php(312): CodeIgniter\CodeIgniter->handleRequest(NULL, Object(Config\Cache), false)
#5 C:\Users\morak\Desktop\verkkokauppa\public\index.php(45): CodeIgniter\CodeIgniter->run()
#6 C:\Users\morak\Desktop\verkkokauppa\system\Commands\Server\rewrite.php(34): require_once('C:\\Users\\morak\\...')
#7 {main}
CRITICAL - 2020-12-05 09:15:27 --> Undefined variable: id
#0 C:\Users\morak\Desktop\verkkokauppa\app\Models\AsiakasModel.php(19): CodeIgniter\Debug\Exceptions->errorHandler(8, 'Undefined varia...', 'C:\\Users\\morak\\...', 19, Array)
#1 C:\Users\morak\Desktop\verkkokauppa\app\Controllers\Asiakas.php(51): App\Models\AsiakasModel->haeAsiakas()
#2 C:\Users\morak\Desktop\verkkokauppa\system\CodeIgniter.php(918): App\Controllers\Asiakas->info()
#3 C:\Users\morak\Desktop\verkkokauppa\system\CodeIgniter.php(404): CodeIgniter\CodeIgniter->runController(Object(App\Controllers\Asiakas))
#4 C:\Users\morak\Desktop\verkkokauppa\system\CodeIgniter.php(312): CodeIgniter\CodeIgniter->handleRequest(NULL, Object(Config\Cache), false)
#5 C:\Users\morak\Desktop\verkkokauppa\public\index.php(45): CodeIgniter\CodeIgniter->run()
#6 C:\Users\morak\Desktop\verkkokauppa\system\Commands\Server\rewrite.php(34): require_once('C:\\Users\\morak\\...')
#7 {main}
CRITICAL - 2020-12-05 09:16:31 --> Too few arguments to function App\Controllers\Asiakas::info(), 0 passed in C:\Users\morak\Desktop\verkkokauppa\system\CodeIgniter.php on line 918 and exactly 1 expected
#0 C:\Users\morak\Desktop\verkkokauppa\system\CodeIgniter.php(918): App\Controllers\Asiakas->info()
#1 C:\Users\morak\Desktop\verkkokauppa\system\CodeIgniter.php(404): CodeIgniter\CodeIgniter->runController(Object(App\Controllers\Asiakas))
#2 C:\Users\morak\Desktop\verkkokauppa\system\CodeIgniter.php(312): CodeIgniter\CodeIgniter->handleRequest(NULL, Object(Config\Cache), false)
#3 C:\Users\morak\Desktop\verkkokauppa\public\index.php(45): CodeIgniter\CodeIgniter->run()
#4 C:\Users\morak\Desktop\verkkokauppa\system\Commands\Server\rewrite.php(34): require_once('C:\\Users\\morak\\...')
#5 {main}
CRITICAL - 2020-12-05 09:16:43 --> Too few arguments to function App\Controllers\Asiakas::info(), 0 passed in C:\Users\morak\Desktop\verkkokauppa\system\CodeIgniter.php on line 918 and exactly 1 expected
#0 C:\Users\morak\Desktop\verkkokauppa\system\CodeIgniter.php(918): App\Controllers\Asiakas->info()
#1 C:\Users\morak\Desktop\verkkokauppa\system\CodeIgniter.php(404): CodeIgniter\CodeIgniter->runController(Object(App\Controllers\Asiakas))
#2 C:\Users\morak\Desktop\verkkokauppa\system\CodeIgniter.php(312): CodeIgniter\CodeIgniter->handleRequest(NULL, Object(Config\Cache), false)
#3 C:\Users\morak\Desktop\verkkokauppa\public\index.php(45): CodeIgniter\CodeIgniter->run()
#4 C:\Users\morak\Desktop\verkkokauppa\system\Commands\Server\rewrite.php(34): require_once('C:\\Users\\morak\\...')
#5 {main}
CRITICAL - 2020-12-05 09:16:43 --> Too few arguments to function App\Controllers\Asiakas::info(), 0 passed in C:\Users\morak\Desktop\verkkokauppa\system\CodeIgniter.php on line 918 and exactly 1 expected
#0 C:\Users\morak\Desktop\verkkokauppa\system\CodeIgniter.php(918): App\Controllers\Asiakas->info()
#1 C:\Users\morak\Desktop\verkkokauppa\system\CodeIgniter.php(404): CodeIgniter\CodeIgniter->runController(Object(App\Controllers\Asiakas))
#2 C:\Users\morak\Desktop\verkkokauppa\system\CodeIgniter.php(312): CodeIgniter\CodeIgniter->handleRequest(NULL, Object(Config\Cache), false)
#3 C:\Users\morak\Desktop\verkkokauppa\public\index.php(45): CodeIgniter\CodeIgniter->run()
#4 C:\Users\morak\Desktop\verkkokauppa\system\Commands\Server\rewrite.php(34): require_once('C:\\Users\\morak\\...')
#5 {main}
CRITICAL - 2020-12-05 09:16:44 --> Too few arguments to function App\Controllers\Asiakas::info(), 0 passed in C:\Users\morak\Desktop\verkkokauppa\system\CodeIgniter.php on line 918 and exactly 1 expected
#0 C:\Users\morak\Desktop\verkkokauppa\system\CodeIgniter.php(918): App\Controllers\Asiakas->info()
#1 C:\Users\morak\Desktop\verkkokauppa\system\CodeIgniter.php(404): CodeIgniter\CodeIgniter->runController(Object(App\Controllers\Asiakas))
#2 C:\Users\morak\Desktop\verkkokauppa\system\CodeIgniter.php(312): CodeIgniter\CodeIgniter->handleRequest(NULL, Object(Config\Cache), false)
#3 C:\Users\morak\Desktop\verkkokauppa\public\index.php(45): CodeIgniter\CodeIgniter->run()
#4 C:\Users\morak\Desktop\verkkokauppa\system\Commands\Server\rewrite.php(34): require_once('C:\\Users\\morak\\...')
#5 {main}
CRITICAL - 2020-12-05 09:16:44 --> Too few arguments to function App\Controllers\Asiakas::info(), 0 passed in C:\Users\morak\Desktop\verkkokauppa\system\CodeIgniter.php on line 918 and exactly 1 expected
#0 C:\Users\morak\Desktop\verkkokauppa\system\CodeIgniter.php(918): App\Controllers\Asiakas->info()
#1 C:\Users\morak\Desktop\verkkokauppa\system\CodeIgniter.php(404): CodeIgniter\CodeIgniter->runController(Object(App\Controllers\Asiakas))
#2 C:\Users\morak\Desktop\verkkokauppa\system\CodeIgniter.php(312): CodeIgniter\CodeIgniter->handleRequest(NULL, Object(Config\Cache), false)
#3 C:\Users\morak\Desktop\verkkokauppa\public\index.php(45): CodeIgniter\CodeIgniter->run()
#4 C:\Users\morak\Desktop\verkkokauppa\system\Commands\Server\rewrite.php(34): require_once('C:\\Users\\morak\\...')
#5 {main}
CRITICAL - 2020-12-05 09:16:44 --> Too few arguments to function App\Controllers\Asiakas::info(), 0 passed in C:\Users\morak\Desktop\verkkokauppa\system\CodeIgniter.php on line 918 and exactly 1 expected
#0 C:\Users\morak\Desktop\verkkokauppa\system\CodeIgniter.php(918): App\Controllers\Asiakas->info()
#1 C:\Users\morak\Desktop\verkkokauppa\system\CodeIgniter.php(404): CodeIgniter\CodeIgniter->runController(Object(App\Controllers\Asiakas))
#2 C:\Users\morak\Desktop\verkkokauppa\system\CodeIgniter.php(312): CodeIgniter\CodeIgniter->handleRequest(NULL, Object(Config\Cache), false)
#3 C:\Users\morak\Desktop\verkkokauppa\public\index.php(45): CodeIgniter\CodeIgniter->run()
#4 C:\Users\morak\Desktop\verkkokauppa\system\Commands\Server\rewrite.php(34): require_once('C:\\Users\\morak\\...')
#5 {main}
CRITICAL - 2020-12-05 09:16:44 --> Too few arguments to function App\Controllers\Asiakas::info(), 0 passed in C:\Users\morak\Desktop\verkkokauppa\system\CodeIgniter.php on line 918 and exactly 1 expected
#0 C:\Users\morak\Desktop\verkkokauppa\system\CodeIgniter.php(918): App\Controllers\Asiakas->info()
#1 C:\Users\morak\Desktop\verkkokauppa\system\CodeIgniter.php(404): CodeIgniter\CodeIgniter->runController(Object(App\Controllers\Asiakas))
#2 C:\Users\morak\Desktop\verkkokauppa\system\CodeIgniter.php(312): CodeIgniter\CodeIgniter->handleRequest(NULL, Object(Config\Cache), false)
#3 C:\Users\morak\Desktop\verkkokauppa\public\index.php(45): CodeIgniter\CodeIgniter->run()
#4 C:\Users\morak\Desktop\verkkokauppa\system\Commands\Server\rewrite.php(34): require_once('C:\\Users\\morak\\...')
#5 {main}
CRITICAL - 2020-12-05 09:19:44 --> Undefined variable: id
#0 C:\Users\morak\Desktop\verkkokauppa\app\Models\AsiakasModel.php(19): CodeIgniter\Debug\Exceptions->errorHandler(8, 'Undefined varia...', 'C:\\Users\\morak\\...', 19, Array)
#1 C:\Users\morak\Desktop\verkkokauppa\app\Controllers\Asiakas.php(51): App\Models\AsiakasModel->haeAsiakas()
#2 C:\Users\morak\Desktop\verkkokauppa\system\CodeIgniter.php(918): App\Controllers\Asiakas->info()
#3 C:\Users\morak\Desktop\verkkokauppa\system\CodeIgniter.php(404): CodeIgniter\CodeIgniter->runController(Object(App\Controllers\Asiakas))
#4 C:\Users\morak\Desktop\verkkokauppa\system\CodeIgniter.php(312): CodeIgniter\CodeIgniter->handleRequest(NULL, Object(Config\Cache), false)
#5 C:\Users\morak\Desktop\verkkokauppa\public\index.php(45): CodeIgniter\CodeIgniter->run()
#6 C:\Users\morak\Desktop\verkkokauppa\system\Commands\Server\rewrite.php(34): require_once('C:\\Users\\morak\\...')
#7 {main}
